<svg width="98" height="84" viewBox="0 0 98 84" xmlns="http://www.w3.org/2000/svg">
    <g fill="#850199" fill-rule="evenodd">
        <circle cx="4.667" cy="4.667" r="4.667"/>
        <circle cx="4.667" cy="23.333" r="4.667"/>
        <circle cx="26.833" cy="4.667" r="4.667"/>
        <circle cx="26.833" cy="23.333" r="4.667"/>
        <circle cx="49" cy="4.667" r="4.667"/>
        <circle cx="49" cy="23.333" r="4.667"/>
        <circle cx="71.167" cy="4.667" r="4.667"/>
        <circle cx="71.167" cy="23.333" r="4.667"/>
        <circle cx="93.333" cy="4.667" r="4.667"/>
        <circle cx="93.333" cy="23.333" r="4.667"/>
        <circle cx="4.667" cy="42" r="4.667"/>
        <circle cx="26.833" cy="42" r="4.667"/>
        <circle cx="49" cy="42" r="4.667"/>
        <circle cx="71.167" cy="42" r="4.667"/>
        <circle cx="93.333" cy="42" r="4.667"/>
        <circle cx="4.667" cy="60.667" r="4.667"/>
        <circle cx="26.833" cy="60.667" r="4.667"/>
        <circle cx="49" cy="60.667" r="4.667"/>
        <circle cx="71.167" cy="60.667" r="4.667"/>
        <circle cx="93.333" cy="60.667" r="4.667"/>
        <circle cx="4.667" cy="79.333" r="4.667"/>
        <circle cx="26.833" cy="79.333" r="4.667"/>
        <circle cx="49" cy="79.333" r="4.667"/>
        <circle cx="71.167" cy="79.333" r="4.667"/>
        <circle cx="93.333" cy="79.333" r="4.667"/>
    </g>
</svg>
