<svg width="938" height="950" viewBox="0 0 938 950" xmlns="http://www.w3.org/2000/svg">
    <g fill="#F8E8EE" fill-rule="nonzero" opacity=".537">
        <path d="M131.155 427.765c-8.255-67.258 41.875-141.262 101.037-190.98 58.821-50.082 125.97-75.903 195.596-91.767 69.626-15.864 141.388-22.137 191.471 7.479 49.72 29.955 77.421 95.434 117.673 164.882 40.252 69.448 93.056 142.864 87.862 211.762-5.194 68.897-68.045 133.64-142.55 188.806-74.504 55.167-161.002 100.393-230.846 81.709-70.21-18.345-124.08-101.667-184.362-172.881-60.62-71.578-127.625-131.751-135.88-199.01z"/>
        <path d="M81.155 485.765c-8.255-67.258 41.875-141.262 101.037-190.98 58.821-50.082 125.97-75.903 195.596-91.767 69.626-15.864 141.388-22.137 191.471 7.479 49.72 29.955 77.421 95.434 117.673 164.882 40.252 69.448 93.056 142.864 87.862 211.762-5.194 68.897-68.045 133.64-142.55 188.806-74.504 55.167-161.002 100.393-230.846 81.709-70.21-18.345-124.08-101.667-184.362-172.881-60.62-71.578-127.625-131.751-135.88-199.01z"/>
    </g>
</svg>
